cpsswe_earnings_vs_education_analysis
…
df %>% summarise(median(education))

  median(education)
1                16

3.1

url <- "https://vincentarelbundock.github.io/Rdatasets/csv/AER/CPSSWEducation.csv"
cps_sw_edu <- read_csv(url, show_col_types = FALSE)

cps_sw_edu

# A tibble: 2,950 × 5
   rownames   age gender earnings education
      <dbl> <dbl> <chr>     <dbl>     <dbl>
 1        1    30 male      34.6         16
 2        2    30 female    19.2         16
 3        3    30 female    13.7         12
 4        4    30 female    13.9         13
 5        5    30 female    19.2         16
 6        6    30 female     8           12
 7        7    30 male      19.2         12
 8        8    29 male      26.2         16
 9        9    29 male      26.4         16
10       10    30 female     6.22        12
# ℹ 2,940 more rows
…
