labw9
…
Q1

library(readr)
library(dplyr)
library(modelsummary)
library(ggplot2)
library(AER)
library(car)

beauty <- read_csv("beauty.csv", show_col_types = FALSE)

print(beauty)

# A tibble: 1,260 × 16
    ...1  wage lwage exper union goodhlth black female married south bigcity
   <dbl> <dbl> <dbl> <dbl> <dbl>    <dbl> <dbl>  <dbl>   <dbl> <dbl>   <dbl>
 1     1  5.73  1.75    30     0        1     0      1       1     0       0
 2     2  4.28  1.45    28     0        1     0      1       1     1       0
 3     3  7.96  2.07    35     0        1     0      1       0     0       0
 4     4 11.6   2.45    38     0        1     0      0       1     0       1
 5     5 11.4   2.44    27     0        1     0      0       1     0       0
 6     6  3.91  1.36    20     0        0     0      1       1     0       1
 7     7  8.76  2.17    12     0        1     0      0       1     0       1
 8     8  7.69  2.04     5     1        1     0      0       0     0       0
 9     9  5     1.61     5     0        1     0      1       0     0       0
10    10  3.89  1.36    12     0        1     0      1       0     0       0
# ℹ 1,250 more rows
# ℹ 5 more variables: smllcity <dbl>, service <dbl>, expersq <dbl>, educ <dbl>,
#   looks <chr>
…
